---------
---List of current systems supplied by Brookes that should have had markets but for some reason doesn't.
---------Shadowgar


--83,'GCRV 13292',-99.84375,27.5625,-28.1875,'2014-10-02 14:21:15');  
--92,'Loga',-79.78125,36.53125,-42.0625,'2014-10-02 14:21:15'); 
--96,'Balmus',-89,9.375,-52.0625,'2014-10-02 14:21:15'); 
--97,'LTT 16523',-72.65625,13.28125,-25.9375,'2014-10-02 14:21:15'); 
--98,'HIP 7338',-96.5,33.21875,-68.65625,'2014-10-02 14:21:15'); 
--112,'HR 7925',-104.53125,21.0625,-12.1875,'2014-10-02 14:21:15'); 
--118,'HIP 108110',-122.625,22,-37.34375,'2014-10-02 14:21:15'); 
--119,'Ross 210',-73.5,10.0625,-15.71875,'2014-10-02 14:21:15'); 
--126,'Altais',-88.625,38.09375,-13.65625,'2014-10-02 14:21:15'); 
--142,'Njirika',-117.46875,36.28125,-15.40625,'2014-10-02 14:21:15'); 
--146,'Manamaya',-43.53125,35.03125,-19.15625,'2014-10-02 14:21:15'); System is bugged, ticket sent.
--151,'Medusa',-67.96875,42.5,-14.5,'2014-10-02 14:21:15'); 
--154,'Merki',-81.625,50.625,-19.28125,'2014-10-02 14:21:15'); 
--165,'21 Eta Ursae Minoris',-74.625,56.25,-26,'2014-10-02 14:21:15'); 
--169,'Men Samit',-120.375,55.6875,-40.6875,'2014-10-02 14:21:15'); 
--170,'Jaitu',-92.59375,15.1875,-9.15625,'2014-10-02 14:21:15'); 
--174,'Lakluit',-83.875,21.125,-10.0625,'2014-10-02 14:21:15'); 
--179,'BD+65 1846',-60.3125,7.125,-25.53125,'2014-10-02 14:21:15'); 
--183,'HIP 93119',-113.5625,57.40625,-33.9375,'2014-10-02 14:21:15'); 
--203,'Aeolus',-43.28125,37.28125,-31.53125,'2014-10-02 14:21:15'); 
--210,'Mufrid',-1.125,35.25,11.09375,'2014-10-02 14:21:15'); 
--214,'LHS 215',-20.59375,13.28125,-18.3125,'2014-10-02 14:21:15'); 
--220,'LTT 16016',-62.53125,12.375,-5.5,'2014-10-02 14:21:15'); 
--221,'LP 37-75',-27.25,38.5,-33.65625,'2014-10-02 14:21:15'); 
--230,'Eta Coronae Borealis',-23.78125,48.4375,21.9375,'2014-10-02 14:21:15'); 
--245,'CR Draconis',-48.3125,46.15625,4.46875,'2014-10-02 14:21:15'); 
--250,'LHS 140',-34.53125,16.1875,-23.0625,'2014-10-02 14:21:15'); 
--253,'Eos',-51.875,16.78125,-0.375,'2014-10-02 14:21:15'); 
--267,'Demeter',-55.34375,40.8125,7.5625,'2014-10-02 14:21:15'); 
--272,'Tollan',-14.78125,20,-21.96875,'2014-10-02 14:21:15'); 
--310,'LHS 2948',-21.6875,60.4375,15.09375,'2014-10-02 14:21:15'); 